<svg xmlns="http://www.w3.org/2000/svg" width="129" height="23" viewBox="0 0 129 23">
  <g id="_4zvijezdice" data-name="4zvijezdice" transform="translate(-582 -911)">
    <g id="_3zvijezdice" data-name="3zvijezdice">
      <g id="_1zvijezdica" data-name="1zvijezdica">
        <g id="_2zvijezdice" data-name="2zvijezdice">
          <g id="Rectangle_7" data-name="Rectangle 7" transform="translate(582 911)" fill="#c75c5c" stroke="#707070" stroke-width="1">
            <rect width="129" height="23" rx="11.5" stroke="none"/>
            <rect x="0.5" y="0.5" width="128" height="22" rx="11" fill="none"/>
          </g>
          <g id="Group_97" data-name="Group 97" transform="translate(817 1025)">
            <g id="Group_102" data-name="Group 102" transform="translate(-15 -40)">
              <g id="Group_101" data-name="Group 101">
                <g id="Group_104" data-name="Group 104">
                  <g id="Group_96" data-name="Group 96" transform="translate(69 24)">
                    <g id="Group_93" data-name="Group 93" transform="translate(-288 -109)" opacity="0.2">
                      <g id="Group_92" data-name="Group 92" transform="translate(11 12.898)">
                        <path id="Path_47" data-name="Path 47" d="M30.632,20.008a1.236,1.236,0,0,0-.994-.839L24.327,18.4l-2.376-4.812a1.232,1.232,0,0,0-2.21,0L17.367,18.4l-5.312.771a1.233,1.233,0,0,0-.683,2.1l3.843,3.746-.907,5.29a1.233,1.233,0,0,0,.49,1.205,1.23,1.23,0,0,0,1.3.094l4.751-2.5,4.751,2.5a1.232,1.232,0,0,0,1.788-1.3l-.907-5.291,3.843-3.746A1.233,1.233,0,0,0,30.632,20.008Z" transform="translate(-11 -12.898)" fill="#231f20"/>
                      </g>
                    </g>
                    <g id="Group_93-2" data-name="Group 93" transform="translate(-267 -109)" opacity="0.2">
                      <g id="Group_92-2" data-name="Group 92" transform="translate(11 12.898)">
                        <path id="Path_47-2" data-name="Path 47" d="M30.632,20.008a1.236,1.236,0,0,0-.994-.839L24.327,18.4l-2.376-4.812a1.232,1.232,0,0,0-2.21,0L17.367,18.4l-5.312.771a1.233,1.233,0,0,0-.683,2.1l3.843,3.746-.907,5.29a1.233,1.233,0,0,0,.49,1.205,1.23,1.23,0,0,0,1.3.094l4.751-2.5,4.751,2.5a1.232,1.232,0,0,0,1.788-1.3l-.907-5.291,3.843-3.746A1.233,1.233,0,0,0,30.632,20.008Z" transform="translate(-11 -12.898)" fill="#231f20"/>
                      </g>
                    </g>
                    <g id="Group_93-3" data-name="Group 93" transform="translate(-246 -109)" opacity="0.2">
                      <g id="Group_92-3" data-name="Group 92" transform="translate(11 12.898)">
                        <path id="Path_47-3" data-name="Path 47" d="M30.632,20.008a1.236,1.236,0,0,0-.994-.839L24.327,18.4l-2.376-4.812a1.232,1.232,0,0,0-2.21,0L17.367,18.4l-5.312.771a1.233,1.233,0,0,0-.683,2.1l3.843,3.746-.907,5.29a1.233,1.233,0,0,0,.49,1.205,1.23,1.23,0,0,0,1.3.094l4.751-2.5,4.751,2.5a1.232,1.232,0,0,0,1.788-1.3l-.907-5.291,3.843-3.746A1.233,1.233,0,0,0,30.632,20.008Z" transform="translate(-11 -12.898)" fill="#231f20"/>
                      </g>
                    </g>
                    <g id="Group_93-4" data-name="Group 93" transform="translate(-225 -109)" opacity="0.2">
                      <g id="Group_92-4" data-name="Group 92" transform="translate(11 12.898)">
                        <path id="Path_47-4" data-name="Path 47" d="M30.632,20.008a1.236,1.236,0,0,0-.994-.839L24.327,18.4l-2.376-4.812a1.232,1.232,0,0,0-2.21,0L17.367,18.4l-5.312.771a1.233,1.233,0,0,0-.683,2.1l3.843,3.746-.907,5.29a1.233,1.233,0,0,0,.49,1.205,1.23,1.23,0,0,0,1.3.094l4.751-2.5,4.751,2.5a1.232,1.232,0,0,0,1.788-1.3l-.907-5.291,3.843-3.746A1.233,1.233,0,0,0,30.632,20.008Z" transform="translate(-11 -12.898)" fill="#231f20"/>
                      </g>
                    </g>
                    <g id="Group_93-5" data-name="Group 93" transform="translate(-204 -109)" opacity="0.2">
                      <g id="Group_92-5" data-name="Group 92" transform="translate(11 12.898)">
                        <path id="Path_47-5" data-name="Path 47" d="M30.632,20.008a1.236,1.236,0,0,0-.994-.839L24.327,18.4l-2.376-4.812a1.232,1.232,0,0,0-2.21,0L17.367,18.4l-5.312.771a1.233,1.233,0,0,0-.683,2.1l3.843,3.746-.907,5.29a1.233,1.233,0,0,0,.49,1.205,1.23,1.23,0,0,0,1.3.094l4.751-2.5,4.751,2.5a1.232,1.232,0,0,0,1.788-1.3l-.907-5.291,3.843-3.746A1.233,1.233,0,0,0,30.632,20.008Z" transform="translate(-11 -12.898)" fill="#231f20"/>
                      </g>
                    </g>
                  </g>
                  <g id="Group_95" data-name="Group 95" transform="translate(-219 -83)">
                    <g id="Group_94" data-name="Group 94" transform="translate(11 10.898)">
                      <path id="Path_48" data-name="Path 48" d="M30.463,18.008a1.228,1.228,0,0,0-.986-.839L24.212,16.4l-2.355-4.812a1.216,1.216,0,0,0-2.191,0L17.312,16.4l-5.266.771a1.224,1.224,0,0,0-.986.839,1.237,1.237,0,0,0,.309,1.263l3.81,3.746-.9,5.29a1.238,1.238,0,0,0,.486,1.205,1.21,1.21,0,0,0,1.285.094l4.71-2.5,4.71,2.5a1.212,1.212,0,0,0,1.286-.094,1.239,1.239,0,0,0,.486-1.205l-.9-5.291,3.81-3.746A1.241,1.241,0,0,0,30.463,18.008Z" transform="translate(-11 -10.898)" fill="#f5cf87"/>
                    </g>
                  </g>
                  <g id="Group_103" data-name="Group 103" transform="translate(-198 -83)">
                    <g id="Group_94-2" data-name="Group 94" transform="translate(11 10.898)">
                      <path id="Path_48-2" data-name="Path 48" d="M30.463,18.008a1.228,1.228,0,0,0-.986-.839L24.212,16.4l-2.355-4.812a1.216,1.216,0,0,0-2.191,0L17.312,16.4l-5.266.771a1.224,1.224,0,0,0-.986.839,1.237,1.237,0,0,0,.309,1.263l3.81,3.746-.9,5.29a1.238,1.238,0,0,0,.486,1.205,1.21,1.21,0,0,0,1.285.094l4.71-2.5,4.71,2.5a1.212,1.212,0,0,0,1.286-.094,1.239,1.239,0,0,0,.486-1.205l-.9-5.291,3.81-3.746A1.241,1.241,0,0,0,30.463,18.008Z" transform="translate(-11 -10.898)" fill="#f5cf87"/>
                    </g>
                  </g>
                </g>
              </g>
            </g>
          </g>
        </g>
      </g>
      <g id="Group_105" data-name="Group 105" transform="translate(625 902)">
        <g id="Group_94-3" data-name="Group 94" transform="translate(11 10.898)">
          <path id="Path_48-3" data-name="Path 48" d="M30.463,18.008a1.228,1.228,0,0,0-.986-.839L24.212,16.4l-2.355-4.812a1.216,1.216,0,0,0-2.191,0L17.312,16.4l-5.266.771a1.224,1.224,0,0,0-.986.839,1.237,1.237,0,0,0,.309,1.263l3.81,3.746-.9,5.29a1.238,1.238,0,0,0,.486,1.205,1.21,1.21,0,0,0,1.285.094l4.71-2.5,4.71,2.5a1.212,1.212,0,0,0,1.286-.094,1.239,1.239,0,0,0,.486-1.205l-.9-5.291,3.81-3.746A1.241,1.241,0,0,0,30.463,18.008Z" transform="translate(-11 -10.898)" fill="#f5cf87"/>
        </g>
      </g>
    </g>
    <g id="Group_106" data-name="Group 106" transform="translate(646 902)">
      <g id="Group_94-4" data-name="Group 94" transform="translate(11 10.898)">
        <path id="Path_48-4" data-name="Path 48" d="M30.463,18.008a1.228,1.228,0,0,0-.986-.839L24.212,16.4l-2.355-4.812a1.216,1.216,0,0,0-2.191,0L17.312,16.4l-5.266.771a1.224,1.224,0,0,0-.986.839,1.237,1.237,0,0,0,.309,1.263l3.81,3.746-.9,5.29a1.238,1.238,0,0,0,.486,1.205,1.21,1.21,0,0,0,1.285.094l4.71-2.5,4.71,2.5a1.212,1.212,0,0,0,1.286-.094,1.239,1.239,0,0,0,.486-1.205l-.9-5.291,3.81-3.746A1.241,1.241,0,0,0,30.463,18.008Z" transform="translate(-11 -10.898)" fill="#f5cf87"/>
      </g>
    </g>
  </g>
</svg>
